"Cisco Systems, Inc.",https://finance.yahoo.com/quote/CSCO?p=CSCO
NVIDIA Corporation,https://finance.yahoo.com/quote/NVDA?p=NVDA
Canopy Growth Corporation,https://finance.yahoo.com/quote/CGC?p=CGC
Aurora Cannabis Inc.,https://finance.yahoo.com/quote/ACB?p=ACB
Amarin Corporation plc,https://finance.yahoo.com/quote/AMRN?p=AMRN
The Kraft Heinz Company,https://finance.yahoo.com/quote/KHC?p=KHC
Walmart Inc.,https://finance.yahoo.com/quote/WMT?p=WMT
New Residential Investment Corp.,https://finance.yahoo.com/quote/NRZ?p=NRZ
Weibo Corporation,https://finance.yahoo.com/quote/WB?p=WB
Splunk Inc.,https://finance.yahoo.com/quote/SPLK?p=SPLK
SINA Corporation,https://finance.yahoo.com/quote/SINA?p=SINA
International Game Technology PLC,https://finance.yahoo.com/quote/IGT?p=IGT
NIO Inc.,https://finance.yahoo.com/quote/NIO?p=NIO
Astrotech Corporation,https://finance.yahoo.com/quote/ASTC?p=ASTC
"Uber Technologies, Inc.",https://finance.yahoo.com/quote/UBER?p=UBER
Canopy Growth Corporation,https://finance.yahoo.com/quote/WEED.TO?p=WEED.TO
"Advanced Micro Devices, Inc.",https://finance.yahoo.com/quote/AMD?p=AMD
"CenterPoint Energy, Inc.",https://finance.yahoo.com/quote/CNP?p=CNP
Aurora Cannabis Inc.,https://finance.yahoo.com/quote/ACB.TO?p=ACB.TO
"Sienna Biopharmaceuticals, Inc.",https://finance.yahoo.com/quote/SNNA?p=SNNA
"McDermott International, Inc.",https://finance.yahoo.com/quote/MDR?p=MDR
"Pier 1 Imports, Inc.",https://finance.yahoo.com/quote/PIR?p=PIR
Pacific Coast Oil Trust,https://finance.yahoo.com/quote/ROYT?p=ROYT
"MicroVision, Inc.",https://finance.yahoo.com/quote/MVIS?p=MVIS
"Etsy, Inc.",https://finance.yahoo.com/quote/ETSY?p=ETSY
"JD.com, Inc.",https://finance.yahoo.com/quote/JD?p=JD
"Dillard's, Inc.",https://finance.yahoo.com/quote/DDS?p=DDS
Farfetch Limited,https://finance.yahoo.com/quote/FTCH?p=FTCH
"Matinas BioPharma Holdings, Inc.",https://finance.yahoo.com/quote/MTNB?p=MTNB
HP Inc.,https://finance.yahoo.com/quote/HPQ?p=HPQ
"VIVUS, Inc.",https://finance.yahoo.com/quote/VVUS?p=VVUS
Amarin Corporation plc,https://finance.yahoo.com/quote/AMRN?p=AMRN
"SG Blocks, Inc.",https://finance.yahoo.com/quote/SGBX?p=SGBX
BlackBerry Limited,https://finance.yahoo.com/quote/BB?p=BB
"EyeGate Pharmaceuticals, Inc.",https://finance.yahoo.com/quote/EYEG?p=EYEG
Honeywell International Inc.,https://finance.yahoo.com/quote/HON?p=HON
"2U, Inc.",https://finance.yahoo.com/quote/TWOU?p=TWOU
Xerox Holdings Corporation,https://finance.yahoo.com/quote/XRX?p=XRX
HP Inc.,https://finance.yahoo.com/quote/HPQ?p=HPQ
InflaRx N.V.,https://finance.yahoo.com/quote/IFRX?p=IFRX
Cerus Corporation,https://finance.yahoo.com/quote/CERS?p=CERS
Innovation Pharmaceuticals Inc.,https://finance.yahoo.com/quote/IPIX?p=IPIX
"Organovo Holdings, Inc.",https://finance.yahoo.com/quote/ONVO?p=ONVO
Emergent BioSolutions Inc.,https://finance.yahoo.com/quote/EBS?p=EBS
Verint Systems Inc.,https://finance.yahoo.com/quote/VRNT?p=VRNT
Omeros Corporation,https://finance.yahoo.com/quote/OMER?p=OMER
Hess Midstream LP,https://finance.yahoo.com/quote/HESM?p=HESM
Twilio Inc.,https://finance.yahoo.com/quote/TWLO?p=TWLO
Luckin Coffee Inc.,https://finance.yahoo.com/quote/LK?p=LK
"Novavax, Inc.",https://finance.yahoo.com/quote/NVAX?p=NVAX
United States Steel Corporation,https://finance.yahoo.com/quote/X?p=X
New Residential Investment Corp.,https://finance.yahoo.com/quote/NRZ?p=NRZ
"Trevi Therapeutics, Inc.",https://finance.yahoo.com/quote/TRVI?p=TRVI
CannTrust Holdings Inc.,https://finance.yahoo.com/quote/CTST?p=CTST
Cenovus Energy Inc.,https://finance.yahoo.com/quote/CVE?p=CVE
"Dollar Tree, Inc.",https://finance.yahoo.com/quote/DLTR?p=DLTR
Rosehill Resources Inc.,https://finance.yahoo.com/quote/ROSE?p=ROSE
"Parsley Energy, Inc.",https://finance.yahoo.com/quote/PE?p=PE
"J. C. Penney Company, Inc.",https://finance.yahoo.com/quote/JCP?p=JCP
Trinity Biotech plc,https://finance.yahoo.com/quote/TRIB?p=TRIB
"VIVUS, Inc.",https://finance.yahoo.com/quote/VVUS?p=VVUS
Amarin Corporation plc,https://finance.yahoo.com/quote/AMRN?p=AMRN
"SG Blocks, Inc.",https://finance.yahoo.com/quote/SGBX?p=SGBX
BlackBerry Limited,https://finance.yahoo.com/quote/BB?p=BB
"EyeGate Pharmaceuticals, Inc.",https://finance.yahoo.com/quote/EYEG?p=EYEG
Honeywell International Inc.,https://finance.yahoo.com/quote/HON?p=HON
"2U, Inc.",https://finance.yahoo.com/quote/TWOU?p=TWOU
Xerox Holdings Corporation,https://finance.yahoo.com/quote/XRX?p=XRX
HP Inc.,https://finance.yahoo.com/quote/HPQ?p=HPQ
InflaRx N.V.,https://finance.yahoo.com/quote/IFRX?p=IFRX
Cerus Corporation,https://finance.yahoo.com/quote/CERS?p=CERS
Innovation Pharmaceuticals Inc.,https://finance.yahoo.com/quote/IPIX?p=IPIX
"Organovo Holdings, Inc.",https://finance.yahoo.com/quote/ONVO?p=ONVO
Emergent BioSolutions Inc.,https://finance.yahoo.com/quote/EBS?p=EBS
Verint Systems Inc.,https://finance.yahoo.com/quote/VRNT?p=VRNT
Omeros Corporation,https://finance.yahoo.com/quote/OMER?p=OMER
Hess Midstream LP,https://finance.yahoo.com/quote/HESM?p=HESM
Twilio Inc.,https://finance.yahoo.com/quote/TWLO?p=TWLO
Luckin Coffee Inc.,https://finance.yahoo.com/quote/LK?p=LK
"Novavax, Inc.",https://finance.yahoo.com/quote/NVAX?p=NVAX
United States Steel Corporation,https://finance.yahoo.com/quote/X?p=X
New Residential Investment Corp.,https://finance.yahoo.com/quote/NRZ?p=NRZ
"Trevi Therapeutics, Inc.",https://finance.yahoo.com/quote/TRVI?p=TRVI
CannTrust Holdings Inc.,https://finance.yahoo.com/quote/CTST?p=CTST
Cenovus Energy Inc.,https://finance.yahoo.com/quote/CVE?p=CVE
"Dollar Tree, Inc.",https://finance.yahoo.com/quote/DLTR?p=DLTR
Rosehill Resources Inc.,https://finance.yahoo.com/quote/ROSE?p=ROSE
"Parsley Energy, Inc.",https://finance.yahoo.com/quote/PE?p=PE
"J. C. Penney Company, Inc.",https://finance.yahoo.com/quote/JCP?p=JCP
Trinity Biotech plc,https://finance.yahoo.com/quote/TRIB?p=TRIB
"VIVUS, Inc.",https://finance.yahoo.com/quote/VVUS?p=VVUS
Amarin Corporation plc,https://finance.yahoo.com/quote/AMRN?p=AMRN
"SG Blocks, Inc.",https://finance.yahoo.com/quote/SGBX?p=SGBX
BlackBerry Limited,https://finance.yahoo.com/quote/BB?p=BB
"EyeGate Pharmaceuticals, Inc.",https://finance.yahoo.com/quote/EYEG?p=EYEG
Honeywell International Inc.,https://finance.yahoo.com/quote/HON?p=HON
"2U, Inc.",https://finance.yahoo.com/quote/TWOU?p=TWOU
Xerox Holdings Corporation,https://finance.yahoo.com/quote/XRX?p=XRX
HP Inc.,https://finance.yahoo.com/quote/HPQ?p=HPQ
InflaRx N.V.,https://finance.yahoo.com/quote/IFRX?p=IFRX
Cerus Corporation,https://finance.yahoo.com/quote/CERS?p=CERS
Innovation Pharmaceuticals Inc.,https://finance.yahoo.com/quote/IPIX?p=IPIX
"Organovo Holdings, Inc.",https://finance.yahoo.com/quote/ONVO?p=ONVO
Emergent BioSolutions Inc.,https://finance.yahoo.com/quote/EBS?p=EBS
Verint Systems Inc.,https://finance.yahoo.com/quote/VRNT?p=VRNT
Omeros Corporation,https://finance.yahoo.com/quote/OMER?p=OMER
Hess Midstream LP,https://finance.yahoo.com/quote/HESM?p=HESM
Twilio Inc.,https://finance.yahoo.com/quote/TWLO?p=TWLO
Luckin Coffee Inc.,https://finance.yahoo.com/quote/LK?p=LK
"Novavax, Inc.",https://finance.yahoo.com/quote/NVAX?p=NVAX
United States Steel Corporation,https://finance.yahoo.com/quote/X?p=X
New Residential Investment Corp.,https://finance.yahoo.com/quote/NRZ?p=NRZ
"Trevi Therapeutics, Inc.",https://finance.yahoo.com/quote/TRVI?p=TRVI
CannTrust Holdings Inc.,https://finance.yahoo.com/quote/CTST?p=CTST
Cenovus Energy Inc.,https://finance.yahoo.com/quote/CVE?p=CVE
"Dollar Tree, Inc.",https://finance.yahoo.com/quote/DLTR?p=DLTR
Rosehill Resources Inc.,https://finance.yahoo.com/quote/ROSE?p=ROSE
"Parsley Energy, Inc.",https://finance.yahoo.com/quote/PE?p=PE
"J. C. Penney Company, Inc.",https://finance.yahoo.com/quote/JCP?p=JCP
Trinity Biotech plc,https://finance.yahoo.com/quote/TRIB?p=TRIB
